{
  "dev": {
    "driver": "pg"
  },

  "test": {
    "driver": "sqlite3",
    "filename": ":memory:"
  },

  "prod": {
    "driver": "pg"
  },

  "pg": {
    "driver": "pg",
    "user": "crmg",
    "password": "crmg",
    "host": "localhost",
    "database": "crmg",
    "schema": "public"
  },

  "other": "postgres://uname:pw@server.com/dbname"
}